…
``` r
count(mci_baseline_df)
```

    ## # A tibble: 1 × 1
    ##       n
    ##   <int>
    ## 1   482

``` r
filter(mci_baseline_df, age_at_onset > 0)
```

    ## # A tibble: 97 × 6
    ##       id current_age sex    education apoe4       age_at_onset
    ##    <dbl>       <dbl> <chr>      <dbl> <chr>              <dbl>
    ##  1     3        62.5 male          16 carrier             66.8
    ##  2     5        66   male          16 non-carrier         68.7
    ##  3     7        66.5 male          18 non-carrier         74  
    ##  4    13        63.1 male          12 carrier             69  
    ##  5    14        58.4 female        20 non-carrier         66.2
    ##  6    18        67.8 male          16 non-carrier         69.8
    ##  7    22        67.3 female        20 carrier             74.6
    ##  8    26        64.8 female        20 carrier             71.1
    ##  9    30        66.3 female        12 non-carrier         73.1
    ## 10    39        68.3 female        16 carrier             70.2
    ## # ℹ 87 more rows
…
